-5.988177339901478, 0
-5.432512315270936, 0
-4.9477832512315265, 0
-4.049261083743842, 0
-3.0679802955665023, 0
-2.3349753694581272, 0
-2.0039408866995068, 0.0004950495049504955
-1.6137931034482742, 0.002970297029702973
-1.353694581280788, 0.006435643564356441
-0.9399014778325121, 0.017326732673267287
-0.656157635467979, 0.03564356435643562
-0.47881773399014715, 0.056930693069306926
-0.28965517241379235, 0.08811881188118814
-0.1477832512315258, 0.12475247524752475
-0.029556650246304272, 0.16386138613861384
0.00591133004926192, 0.17722772277227722
0.13596059113300552, 0.19356435643564357
0.37241379310344946, 0.22475247524752473
0.5733990147783263, 0.2495049504950495
0.6561576354679808, 0.2599009900990099
0.9280788177339918, 0.2935643564356435
1.188177339901479, 0.3237623762376237
1.4955665024630562, 0.35247524752475246
1.5310344827586224, 0.35445544554455444
1.5783251231527107, 0.35544554455445543
1.6374384236453228, 0.35396039603960394
1.684729064039411, 0.35
1.7201970443349754, 0.3445544554455445
1.8029556650246317, 0.3232673267326732
1.873891625615764, 0.3064356435643564
1.921182266009854, 0.292079207920792
2.0157635467980306, 0.2732673267326733
2.122167487684731, 0.2524752475247525
2.2522167487684737, 0.2292079207920792
2.429556650246308, 0.20099009900990097
2.6541871921182274, 0.17227722772277226
3.1862068965517256, 0.12376237623762376
3.4344827586206907, 0.10445544554455444
3.741871921182268, 0.08613861386138616
4.380295566502465, 0.05396039603960395
4.758620689655174, 0.0381188118811881
5.266995073891627, 0.01930693069306927
5.822660098522169, 0.001980198019801982
5.929064039408869, 0.0004950495049504955
5.98817733990148, 0
