0.19399838559369886, 0.7221997718260824
0.45664442785474346, 0.7610582618674874
0.5858508578429307, 0.6351173814936462
0.6503192581145822, 0.562887697651022
0.7686596214739629, 0.5906517786274852
0.8479037153252316, 0.6332351994499561
0.9512796444935767, 0.5332232346433393
0.9911848023363388, 0.573959356731552
1.109848721029579, 0.6239456224817033
1.2670157244521891, 0.6183718763007515
1.3329401237262108, 0.6461420239397244
1.1766898604162068, 0.7146786269794594
1.3859223096458249, 0.6850247806311689
1.425072505042913, 0.6739091382474425
1.5830214338556838, 0.7220390052695707
1.7136299369572652, 0.6923942589150449
1.528798952489606, 0.5979712069456546
1.6470853899600102, 0.6220315904598362
1.7913101800282099, 0.6275704533313562
1.8704733850460138, 0.6645983279604051
1.9231859415207437, 0.6849625973404427
1.9498792565642131, 0.71829284116972
2.0811348703335146, 0.7330924643625708
2.1863712426715565, 0.7608580620046613
2.0403129723781483, 0.6293934854155749
2.2232835136761113, 0.596038974936258
2.3145530807691856, 0.5645469298474741
2.4060383514181667, 0.5478696746078155
2.471881861858724, 0.5700842760533664
2.563663724897077, 0.5737773568562556
2.6802514968647153, 0.48117127030857415
2.7713323233463716, 0.4367162841018054
2.877647213463946, 0.5385558309895233
3.11314157062522, 0.5126026487722593
2.9808883279098484, 0.4292846225272032
3.2298641573153, 0.4292558058802812
3.3738193179386156, 0.41627618144039424
3.4913777559078336, 0.3903366492137774
3.6624306757419443, 0.4384649995702781
3.8076261318117237, 0.5106704167628626
3.97662986786472, 0.41805826355267134
4.147628861809855, 0.46248291644689066
4.342247395126785, 0.32912705782034934
4.553744731693424, 0.4550285048878764
4.737119717158713, 0.44945172537566974
4.946163425776913, 0.4068349379093945
5.154991430839205, 0.3494033605939938
5.404263852634028, 0.36974487998961925
5.654372125707988, 0.4474937100506062
5.956006585699193, 0.4641254653214405
6.228952472754788, 0.3103901706585869
6.544068404990169, 0.3529462914997632
6.88630905938083, 0.4584622358684681
7.225745567544704, 0.3713859121985418
7.595380573535534, 0.5583801674061817
7.947516628553423, 0.4435245961035176
8.339827470858955, 0.38792363420047293
8.744676082351575, 0.2934323322778465
9.203531471654363, 0.3081940388300105
9.68781291760967, 0.26924909884783965
10.236913282114974, 0.1821485085278738
10.828156728855577, 0.28948748498079735
11.48316753931113, 0.27644871058143916
12.241716056601964, 0.17450906376230813
13.275879792452738, 0.10216714666325144
14.955266789909796, 0.24456536576076804
