6.8687772485488106, 5.039902621787993e-10
19.217104123021524, 4.6539323837893914e-10
30.3577446435507, 3.124709793501006e-10
41.401995764592286, 2.2719636784015184e-10
54.649809508944074, 1.6519354746836578e-10
70.96820647674753, 1.4775771727123189e-10
92.1592659843032, 7.811484296119083e-11
113.95610288557857, 9.308037654194326e-11
136.38034132877436, 8.193978303887384e-11
160.57345752835954, 6.249535665289406e-11
182.9832544679484, 6.451914169874127e-11
205.14301665692187, 6.053505208437406e-11
226.2611181825071, 6.249535665289406e-11
257.8383526261186, 7.329121192123146e-11
284.38108655234515, 5.0802180469130334e-11
324.06960357871634, 4.999907130470478e-11
363.31530050797903, 3.00267722926066e-11
434.80834671045136, 1.8322122334592123e-11
546.4980950894396, 1.9841653203316074e-11
733.2435087468224, 8.66395649718987e-12 
