1.278485837433976968e+02 9.695450438863515785e+01 8.484331794066079624e+01 8.578242978441527100e+01 9.073610957638130969e+01 1.426834175110431886e+02
1.020816170715185791e+02 8.536157801227382436e+01 8.986157506669229633e+01 8.323365116418709420e+01 8.748439477447436730e+01 1.010235881823055735e+02
9.115937991509834148e+01 9.371450453976110850e+01 8.811361823653314218e+01 7.204751109561266276e+01 9.330121082411994848e+01 8.955989102445404626e+01
9.323553020317351070e+01 9.793846447203050332e+01 9.372919463600949541e+01 7.961768433030697167e+01 9.203252468699344035e+01 9.179057184030558858e+01
1.140917842200458807e+02 7.923192806880155103e+01 9.456612412452507499e+01 8.802702404699650174e+01 9.086186715247610834e+01 1.053762916753314158e+02
9.976003081309141862e+01 9.069622208547630748e+01 1.013609070828704120e+02 9.549087576742132910e+01 8.181337879224658138e+01 9.479479018199812401e+01
