Telescope,Frequency,DeltaFrequency,betaTh,GXINT
ALMA,3.822,0.705,10.22,-1.19933989026639
ALMA,2.536,0.669,10.22,-1.35605807731932
ALMA,8.278,0.705,10.22,-0.0972793272047244
ALMA,0.528,0.0352,511.0,-0.21166754460815
