Telescope,Frequency,DeltaFrequency,p1,p2,alpha,GXINT
ALMA,3.822,0.705,1.0,1000.0,2.0,-0.760289687162333
ALMA,2.536,0.669,1.0,1000.0,2.0,-1.02426932924727
ALMA,8.278,0.705,1.0,1000.0,2.0,0.463970121616125
