4.796539214745020274e+01 5.277287308166354052e+01 7.532316357541134266e+01 6.526789941610945789e+01 2.431976980313603676e+01 4.628728947161768303e+01
4.679540593584595598e+01 4.424961723894187315e+01 5.185005860104621433e+01 5.599847636318260413e+01 5.475722496368580750e+01 6.052782390979125893e+01
6.020999694323529638e+01 3.737710416531621149e+01 6.808513689625247878e+01 5.962393899457831736e+01 5.299543663970903395e+01 2.021589109156512265e+01
3.885128042789550307e+01 5.828166618456632619e+01 6.559297133057684448e+01 6.880129335066301621e+01 3.659539187328716991e+01 4.505029513277941078e+01
6.286205129219846555e+01 5.696346527529315296e+01 5.890833618457118348e+01 5.610173392774618861e+01 4.301807173874448154e+01 6.262813597840818147e+01
7.207233189250814576e+01 4.659854882526192910e+01 5.001245702052076325e+01 5.139354347751684315e+01 5.529587293737354514e+01 8.297165750590002631e+01
