6.447555524422983808e+01 2.069095967726392615e+01 4.678303520663500592e+01 4.292147285071875018e+01 3.834950651887785966e+01 5.149497523201200977e+01
4.728426586040178847e+01 4.213601574416072282e+01 5.356299031789469467e+01 4.548379429514064043e+01 4.072098131147218680e+01 3.255079849775837175e+01
4.529511711006622932e+01 5.537283426253095087e+01 6.202675111866984281e+01 4.936355966792256567e+01 3.006063933599384441e+01 3.974558721129488958e+01
3.494995144316259683e+01 5.313577269001347503e+01 5.955169192323177185e+01 4.952169687845346857e+01 4.562079363543971056e+01 4.414550780584009004e+01
4.551290463978349976e+01 3.947517064289289124e+01 5.490103007301734550e+01 3.698020441641393319e+01 4.497989768064048377e+01 5.580982940990886476e+01
6.784023457904412169e+01 3.254084692869353290e+01 5.667369044287210045e+01 5.379392822294862953e+01 4.781586252327976894e+01 6.021301656811830583e+01
