0.000000000000000000e+00,0.000000000000000000e+00,0.000000000000000000e+00
5.000000000000000000e+00,0.000000000000000000e+00,0.000000000000000000e+00
1.000000000000000000e+01,0.000000000000000000e+00,0.000000000000000000e+00
2.000000000000000000e+01,4.230044675337524263e-04,0.000000000000000000e+00
2.500000000000000000e+01,4.254439103393460944e-03,0.000000000000000000e+00
3.000000000000000000e+01,8.085873739253174666e-03,0.000000000000000000e+00
4.000000000000000000e+01,1.574874301097259344e-02,0.000000000000000000e+00
5.000000000000000000e+01,2.341161228269201394e-02,0.000000000000000000e+00
6.000000000000000000e+01,3.107448155441144139e-02,0.000000000000000000e+00
7.000000000000000000e+01,3.873735082613086189e-02,0.000000000000000000e+00
8.000000000000000000e+01,4.640022009785028240e-02,0.000000000000000000e+00
9.000000000000000000e+01,5.406308936956970290e-02,0.000000000000000000e+00
1.000000000000000000e+02,6.172595864128911647e-02,0.000000000000000000e+00
1.100000000000000000e+02,6.938882791300854391e-02,0.000000000000000000e+00
1.200000000000000000e+02,7.705169718472797136e-02,0.000000000000000000e+00
1.300000000000000000e+02,8.471456645644738492e-02,0.000000000000000000e+00
1.400000000000000000e+02,9.237743572816681237e-02,0.000000000000000000e+00
1.600000000000000000e+02,1.077031742716056534e-01,0.000000000000000000e+00
1.800000000000000000e+02,1.230289128150444944e-01,0.000000000000000000e+00
2.000000000000000000e+02,1.383546513584833215e-01,0.000000000000000000e+00
2.200000000000000000e+02,1.536803899019221764e-01,0.000000000000000000e+00
2.600000000000000000e+02,1.843318669887998584e-01,0.000000000000000000e+00
2.800000000000000000e+02,1.996576055322387133e-01,0.000000000000000000e+00
